
<svg width="74px" height="78px" viewBox="0 0 74 78" version="1.1" xmlns="http://www.w3.org/2000/svg" xmlns:xlink="http://www.w3.org/1999/xlink">
    <!-- Generator: Sketch 44.1 (41455) - http://www.bohemiancoding.com/sketch -->
    <desc>Created with Sketch.</desc>
    <defs>
        <path d="M27.2939272,39.1643004 L38.0027084,39.1643004 C39.1084602,39.1643004 40,38.2706578 40,37.1682938 L40,1.99600667 C40,0.891586219 39.1057821,0 38.0027084,0 L1.99729162,0 C0.891539827,0 0,0.893642627 0,1.99600667 L0,37.1682938 C0,38.2727142 0.894217919,39.1643004 1.99729162,39.1643004 L12.9710083,39.1643004 C13.0208192,39.2278662 13.0749996,39.2891276 13.1335496,39.3476777 L18.8827888,45.0969169 C19.6690852,45.8832132 20.9325014,45.8822416 21.7123522,45.1023909 L26.7864896,40.0282535 C27.0352269,39.7795162 27.2043784,39.4809716 27.2939272,39.1643004 Z" id="path-1"></path>
        <filter x="-65.0%" y="-52.5%" width="230.0%" height="213.8%" filterUnits="objectBoundingBox" id="filter-2">
            <feMorphology radius="1" operator="dilate" in="SourceAlpha" result="shadowSpreadOuter1"></feMorphology>
            <feOffset dx="0" dy="2" in="shadowSpreadOuter1" result="shadowOffsetOuter1"></feOffset>
            <feGaussianBlur stdDeviation="8" in="shadowOffsetOuter1" result="shadowBlurOuter1"></feGaussianBlur>
            <feComposite in="shadowBlurOuter1" in2="SourceAlpha" operator="out" result="shadowBlurOuter1"></feComposite>
            <feColorMatrix values="0 0 0 0 0   0 0 0 0 0   0 0 0 0 0  0 0 0 0.08 0" type="matrix" in="shadowBlurOuter1"></feColorMatrix>
        </filter>
    </defs>
    <g id="Sprint-3" stroke="none" stroke-width="1" fill="none" fill-rule="evenodd">
        <g id="03b-EV-Operations---Vehicles-Map" transform="translate(-830.000000, -600.000000)">
            <g id="Content" transform="translate(79.000000, 80.000000)">
                <g id="Map" transform="translate(0.000000, 116.000000)">
                    <g id="Map-elements" transform="translate(127.000000, 82.000000)">
                        <g id="Marker-/-No-Issues" transform="translate(641.000000, 337.000000)">
                            <g id="Combined-Shape">
                                <use fill="black" fill-opacity="1" filter="url(#filter-2)" xlink:href="#path-1"></use>
                                <use fill="#E00001" fill-rule="evenodd" xlink:href="#path-1"></use>
                                <path stroke-opacity="0.2" stroke="#9AA7A7" stroke-width="1" d="M27.6407113,39.6643004 C27.5189314,39.9285088 27.3505575,40.1712923 27.1400429,40.3818069 L22.0659055,45.4559443 C21.0894389,46.4324109 19.509438,46.4306728 18.5292354,45.4504703 L12.7799962,39.7012311 C12.7677962,39.689031 12.7557327,39.6767203 12.7438067,39.6643004 L1.99729162,39.6643004 C0.617515956,39.6643004 -0.5,38.5482982 -0.5,37.1682938 L-0.5,1.99600667 C-0.5,0.616606731 0.616290701,-0.5 1.99729162,-0.5 L38.0027084,-0.5 C39.382484,-0.5 40.5,0.616002241 40.5,1.99600667 L40.5,37.1682938 C40.5,38.5476937 39.3837093,39.6643004 38.0027084,39.6643004 L27.6407113,39.6643004 Z"></path>
                            </g>
                            <path d="M29,15 L31,15 L31,19 L29,19 L29,15 Z M9,15 L11,15 L11,19 L9,19 L9,15 Z M26,10 C27.103,10 28,10.897 28,12 L28,28 C28,29.104 27.104,30 26,30 C24.896,30 24,29.104 24,28 L16,28 C16,29.104 15.104,30 14,30 C12.896,30 12,29.104 12,28 L12,12 C12,10.897 12.897,10 14,10 L26,10 Z M14,14 L14,20 L26,20 L26,14 L14,14 Z M24.5,25 C25.3284271,25 26,24.3284271 26,23.5 C26,22.6715729 25.3284271,22 24.5,22 C23.6715729,22 23,22.6715729 23,23.5 C23,24.3284271 23.6715729,25 24.5,25 Z M15.5,25 C16.3284271,25 17,24.3284271 17,23.5 C17,22.6715729 16.3284271,22 15.5,22 C14.6715729,22 14,22.6715729 14,23.5 C14,24.3284271 14.6715729,25 15.5,25 Z" id="Bus" fill="#FFFFFF"></path>
                        </g>
                    </g>
                </g>
            </g>
        </g>
    </g>
</svg>